\relax 
\select@language{british}
\@writefile{toc}{\select@language{british}}
\@writefile{lof}{\select@language{british}}
\@writefile{lot}{\select@language{british}}
\@writefile{toc}{\contentsline {paragraph}{Encapsulation}{1}}
\@writefile{toc}{\contentsline {paragraph}{Data hiding}{1}}
\@writefile{toc}{\contentsline {paragraph}{Data hiding}{1}}
