\relax 
\select@language{british}
\@writefile{toc}{\select@language{british}}
\@writefile{lof}{\select@language{british}}
\@writefile{lot}{\select@language{british}}
\@writefile{toc}{\contentsline {section}{\numberline {1}Exercise 44}{1}}
\@writefile{toc}{\contentsline {subsection}{\numberline {1.1}With pointer}{1}}
\@writefile{toc}{\contentsline {subsection}{\numberline {1.2}Without pointer}{1}}
\@writefile{toc}{\contentsline {subsection}{\numberline {1.3}}{2}}
\@writefile{toc}{\contentsline {section}{\numberline {2}Exercise 45}{2}}
\@writefile{toc}{\contentsline {section}{\numberline {3}Exercise 46}{3}}
\@writefile{toc}{\contentsline {section}{\numberline {4}Exercise 47}{4}}
\@writefile{toc}{\contentsline {section}{\numberline {5}Exercise 48}{4}}
\@writefile{toc}{\contentsline {section}{\numberline {6}Exercise 49 (optional)}{4}}
\@writefile{toc}{\contentsline {section}{\numberline {7}Exercise 50 (optional)}{4}}
