\relax 
\@writefile{toc}{\contentsline {paragraph}{Why do 100 and 356 show the same character?\\}{1}}
\@writefile{toc}{\contentsline {paragraph}{Explain your choice of casts:\\}{1}}
\@writefile{toc}{\contentsline {paragraph}{Part II\\}{3}}
