\relax 
\@writefile{toc}{\contentsline {section}{\numberline {Exercise 1}}{1}}
\@writefile{toc}{\contentsline {section}{\numberline {Exercise 2}}{3}}
\@writefile{toc}{\contentsline {section}{\numberline {Exercise 3}}{4}}
\@writefile{toc}{\contentsline {section}{\numberline {Exercise 4}}{4}}
\@writefile{toc}{\contentsline {section}{\numberline {Exercise 5}}{5}}
