\relax 
\select@language{british}
\@writefile{toc}{\select@language{british}}
\@writefile{lof}{\select@language{british}}
\@writefile{lot}{\select@language{british}}
\@writefile{toc}{\contentsline {paragraph}{b: int *pointer[20]\\}{3}}
\@writefile{toc}{\contentsline {subsection}{\numberline {0.1}No changes}{7}}
\@writefile{toc}{\contentsline {subsection}{\numberline {0.2}Converted code}{8}}
\@writefile{toc}{\contentsline {subsection}{\numberline {0.3}Files}{9}}
